C:\Users\Diana\Desktop\spring_soap_example\src\main\java\com\techprimers\spring_soap_example\package-info.java
C:\Users\Diana\Desktop\spring_soap_example\src\main\java\com\techprimers\spring_soap_example\GetAsistentRequest.java
C:\Users\Diana\Desktop\spring_soap_example\src\main\java\com\techprimers\spring_soap_example\GetAsistentResponse.java
C:\Users\Diana\Desktop\spring_soap_example\src\main\java\com\techprimers\spring_soap_example\ObjectFactory.java
C:\Users\Diana\Desktop\spring_soap_example\src\main\java\com\techprimers\spring_soap_example\Asistent.java
